{
	"info": {
		"_postman_id": "5fd3147e-a1d4-4350-aba8-888c80f44f8c",
		"name": "status code",
		"schema": "https://schema.getpostman.com/json/collection/v2.0.0/collection.json",
		"_exporter_id": "28542240"
	},
	"item": [
		{
			"name": "status_CODE_1",
			"event": [
				{
					"listen": "test",
					"script": {
						"exec": [
							"var status=pm.response.status;\r",
							"console.log(status)\r",
							"var countstart=pm.collectionVariables.get(\"start\");\r",
							"var countend=pm.collectionVariables.get(\"end\");\r",
							"\r",
							"if (status==\"created\")\r",
							"{\r",
							"    pm.test(\"Status code is 201\", function () {\r",
							"        pm.response.to.have.status(201);\r",
							"    });\r",
							"}\r",
							"else\r",
							"{\r",
							"    if(countstart<countend)\r",
							"    {    pm.collectionVariables.set(\"start\",eval(countstart+1))\r",
							"    console.log(pm.collectionVariables.get(\"start\"))\r",
							"    postman.setNextRequest(\"status_CODE_1\");\r",
							"    }\r",
							"    else\r",
							"    {\r",
							"        postman.setNextRequest(null)\r",
							"        pm.collectionVariables.set(\"start\",0);\r",
							"        pm.test(\"Status code is 201\", function () {\r",
							"        pm.response.to.have.status(201);\r",
							"        });\r",
							"    }\r",
							"}\r",
							""
						],
						"type": "text/javascript"
					}
				}
			],
			"request": {
				"method": "POST",
				"header": [],
				"body": {
					"mode": "raw",
					"raw": "{\r\n    \"name\": \"morpheus\",\r\n    \"job\": \"leader\"\r\n}",
					"options": {
						"raw": {
							"language": "json"
						}
					}
				},
				"url": "{{Post_URL}}"
			},
			"response": []
		}
	],
	"event": [
		{
			"listen": "prerequest",
			"script": {
				"type": "text/javascript",
				"exec": [
					""
				]
			}
		},
		{
			"listen": "test",
			"script": {
				"type": "text/javascript",
				"exec": [
					""
				]
			}
		}
	],
	"variable": [
		{
			"key": "start",
			"value": "0",
			"type": "string"
		},
		{
			"key": "end",
			"value": "5",
			"type": "string"
		}
	]
}