{
	"info": {
		"_postman_id": "7a1e8584-a167-4d9d-acab-70515eeede0f",
		"name": "PATCH",
		"schema": "https://schema.getpostman.com/json/collection/v2.0.0/collection.json",
		"_exporter_id": "28542240"
	},
	"item": []
}